[gd_scene load_steps=4 format=2]

[ext_resource path="res://draft/main.gd" type="Script" id=1]
[ext_resource path="res://draft/cursor.png" type="Texture" id=2]
[ext_resource path="res://system/transitioner_engine.gd" type="Script" id=3]

[node name="main" type="Node"]

script = ExtResource( 1 )

[node name="cursor" type="Sprite" parent="."]

position = Vector2( 611.292, 186.207 )
texture = ExtResource( 2 )
_sections_unfolded = [ "Material", "Visibility" ]

[node name="playfield" type="Control" parent="."]

margin_left = 53.0
margin_top = 34.0
margin_right = 781.0
margin_bottom = 521.0
rect_pivot_offset = Vector2( 0, 0 )
rect_clip_content = false
mouse_filter = 0

[node name="Label" type="Label" parent="."]

margin_left = 16.0
margin_top = 19.0
margin_right = 56.0
margin_bottom = 50.0
rect_pivot_offset = Vector2( 0, 0 )
rect_clip_content = false
mouse_filter = 2
size_flags_vertical = 0
text = "text"
percent_visible = 1.0
lines_skipped = 0
max_lines_visible = -1

[node name="label_debug" type="Label" parent="."]

margin_left = 771.0
margin_top = 230.0
margin_right = 811.0
margin_bottom = 261.0
rect_pivot_offset = Vector2( 0, 0 )
rect_clip_content = false
mouse_filter = 2
size_flags_vertical = 0
text = "text"
percent_visible = 1.0
lines_skipped = 0
max_lines_visible = -1

[node name="transitioner_engine" type="Node" parent="."]

script = ExtResource( 3 )

[node name="Button" type="Control" parent="."]

margin_right = 40.0
margin_bottom = 40.0
rect_pivot_offset = Vector2( 0, 0 )
rect_clip_content = false
mouse_filter = 0

[node name="menu" type="Button" parent="Button"]

margin_left = 650.0
margin_top = 33.0
margin_right = 801.0
margin_bottom = 71.0
rect_pivot_offset = Vector2( 0, 0 )
rect_clip_content = false
mouse_filter = 0
toggle_mode = false
enabled_focus_mode = 2
shortcut = null
group = null
text = "request menu"
flat = false

[node name="menu2" type="Button" parent="Button"]

margin_left = 649.0
margin_top = 84.0
margin_right = 800.0
margin_bottom = 122.0
rect_pivot_offset = Vector2( 0, 0 )
rect_clip_content = false
mouse_filter = 0
toggle_mode = false
enabled_focus_mode = 2
shortcut = null
group = null
text = "request game"
flat = false

[connection signal="pressed" from="Button/menu" to="." method="_on_Button_pressed"]

[connection signal="pressed" from="Button/menu2" to="." method="_on_menu2_pressed"]


