[gd_scene load_steps=3 format=2]

[ext_resource path="res://draft/testground1.gd" type="Script" id=1]
[ext_resource path="res://icon.png" type="Texture" id=2]

[node name="Node2D" type="Node2D"]

script = ExtResource( 1 )

[node name="ori" type="Position2D" parent="."]

position = Vector2( 185, 296 )

[node name="Sprite" type="Sprite" parent="ori"]

texture = ExtResource( 2 )

[node name="dest" type="Position2D" parent="."]

position = Vector2( 494, 140 )

[node name="Sprite2" type="Sprite" parent="dest"]

texture = ExtResource( 2 )


