[gd_scene load_steps=2 format=2]

[ext_resource path="res://system/game.gd" type="Script" id=1]

[node name="game" type="Node2D"]

script = ExtResource( 1 )

[node name="module" type="Node" parent="."]

[node name="enemies" type="Node" parent="."]

[node name="camera" type="Camera2D" parent="."]

anchor_mode = 0
rotating = false
current = true
zoom = Vector2( 1, 1 )
limit_left = -10000000
limit_top = -10000000
limit_right = 10000000
limit_bottom = 10000000
limit_smoothed = false
drag_margin_h_enabled = true
drag_margin_v_enabled = true
smoothing_enabled = false
smoothing_speed = 5.0
drag_margin_left = 0.2
drag_margin_top = 0.2
drag_margin_right = 0.2
drag_margin_bottom = 0.2


